^C:\USERS\WARRO\ONEDRIVE\DOCUMENTS\VISUAL STUDIO 2015\PROJECTS\KIRBY RPG 2\KIRBY RPG 2\DISPLAY.CPP
/c /I"C:\USERS\WARRO\ONEDRIVE\DOCUMENTS\VISUAL STUDIO 2015\PROJECTS\KIRBY RPG 2\PACKAGES\ALLEGRO.5.2.2.1\BUILD\NATIVE\INCLUDE\\" /I"C:\USERS\WARRO\ONEDRIVE\DOCUMENTS\VISUAL STUDIO 2015\PROJECTS\KIRBY RPG 2\PACKAGES\ALLEGRODEPS.1.5.0.1\BUILD\NATIVE\\INCLUDE\\" /I"C:\PROGRAM FILES (X86)\VISUAL LEAK DETECTOR\INCLUDE" /ZI /nologo /W3 /WX- /sdl /Od /Oy- /D _MBCS /Gm /EHsc /RTC1 /MDd /GS /fp:precise /Zc:wchar_t /Zc:forScope /Zc:inline /Fo"DEBUG\\" /Fd"DEBUG\VC140.PDB" /Gd /TP /analyze- C:\USERS\WARRO\ONEDRIVE\DOCUMENTS\VISUAL STUDIO 2015\PROJECTS\KIRBY RPG 2\KIRBY RPG 2\DISPLAY.CPP
^C:\USERS\WARRO\ONEDRIVE\DOCUMENTS\VISUAL STUDIO 2015\PROJECTS\KIRBY RPG 2\KIRBY RPG 2\MAIN.CPP
/c /I"C:\USERS\WARRO\ONEDRIVE\DOCUMENTS\VISUAL STUDIO 2015\PROJECTS\KIRBY RPG 2\PACKAGES\ALLEGRO.5.2.2.1\BUILD\NATIVE\INCLUDE\\" /I"C:\USERS\WARRO\ONEDRIVE\DOCUMENTS\VISUAL STUDIO 2015\PROJECTS\KIRBY RPG 2\PACKAGES\ALLEGRODEPS.1.5.0.1\BUILD\NATIVE\\INCLUDE\\" /I"C:\PROGRAM FILES (X86)\VISUAL LEAK DETECTOR\INCLUDE" /ZI /nologo /W3 /WX- /sdl /Od /Oy- /D _MBCS /Gm /EHsc /RTC1 /MDd /GS /fp:precise /Zc:wchar_t /Zc:forScope /Zc:inline /Fo"DEBUG\\" /Fd"DEBUG\VC140.PDB" /Gd /TP /analyze- C:\USERS\WARRO\ONEDRIVE\DOCUMENTS\VISUAL STUDIO 2015\PROJECTS\KIRBY RPG 2\KIRBY RPG 2\MAIN.CPP
^C:\USERS\WARRO\ONEDRIVE\DOCUMENTS\VISUAL STUDIO 2015\PROJECTS\KIRBY RPG 2\KIRBY RPG 2\AUDIO.CPP
/c /I"C:\USERS\WARRO\ONEDRIVE\DOCUMENTS\VISUAL STUDIO 2015\PROJECTS\KIRBY RPG 2\PACKAGES\ALLEGRO.5.2.2.1\BUILD\NATIVE\INCLUDE\\" /I"C:\USERS\WARRO\ONEDRIVE\DOCUMENTS\VISUAL STUDIO 2015\PROJECTS\KIRBY RPG 2\PACKAGES\ALLEGRODEPS.1.5.0.1\BUILD\NATIVE\\INCLUDE\\" /I"C:\PROGRAM FILES (X86)\VISUAL LEAK DETECTOR\INCLUDE" /ZI /nologo /W3 /WX- /sdl /Od /Oy- /D _MBCS /Gm /EHsc /RTC1 /MDd /GS /fp:precise /Zc:wchar_t /Zc:forScope /Zc:inline /Fo"DEBUG\\" /Fd"DEBUG\VC140.PDB" /Gd /TP /analyze- C:\USERS\WARRO\ONEDRIVE\DOCUMENTS\VISUAL STUDIO 2015\PROJECTS\KIRBY RPG 2\KIRBY RPG 2\AUDIO.CPP
^C:\USERS\WARRO\ONEDRIVE\DOCUMENTS\VISUAL STUDIO 2015\PROJECTS\KIRBY RPG 2\KIRBY RPG 2\FONT.CPP
/c /I"C:\USERS\WARRO\ONEDRIVE\DOCUMENTS\VISUAL STUDIO 2015\PROJECTS\KIRBY RPG 2\PACKAGES\ALLEGRO.5.2.2.1\BUILD\NATIVE\INCLUDE\\" /I"C:\USERS\WARRO\ONEDRIVE\DOCUMENTS\VISUAL STUDIO 2015\PROJECTS\KIRBY RPG 2\PACKAGES\ALLEGRODEPS.1.5.0.1\BUILD\NATIVE\\INCLUDE\\" /I"C:\PROGRAM FILES (X86)\VISUAL LEAK DETECTOR\INCLUDE" /ZI /nologo /W3 /WX- /sdl /Od /Oy- /D _MBCS /Gm /EHsc /RTC1 /MDd /GS /fp:precise /Zc:wchar_t /Zc:forScope /Zc:inline /Fo"DEBUG\\" /Fd"DEBUG\VC140.PDB" /Gd /TP /analyze- C:\USERS\WARRO\ONEDRIVE\DOCUMENTS\VISUAL STUDIO 2015\PROJECTS\KIRBY RPG 2\KIRBY RPG 2\FONT.CPP
^C:\USERS\WARRO\ONEDRIVE\DOCUMENTS\VISUAL STUDIO 2015\PROJECTS\KIRBY RPG 2\KIRBY RPG 2\IMAGE.CPP
/c /I"C:\USERS\WARRO\ONEDRIVE\DOCUMENTS\VISUAL STUDIO 2015\PROJECTS\KIRBY RPG 2\PACKAGES\ALLEGRO.5.2.2.1\BUILD\NATIVE\INCLUDE\\" /I"C:\USERS\WARRO\ONEDRIVE\DOCUMENTS\VISUAL STUDIO 2015\PROJECTS\KIRBY RPG 2\PACKAGES\ALLEGRODEPS.1.5.0.1\BUILD\NATIVE\\INCLUDE\\" /I"C:\PROGRAM FILES (X86)\VISUAL LEAK DETECTOR\INCLUDE" /ZI /nologo /W3 /WX- /sdl /Od /Oy- /D _MBCS /Gm /EHsc /RTC1 /MDd /GS /fp:precise /Zc:wchar_t /Zc:forScope /Zc:inline /Fo"DEBUG\\" /Fd"DEBUG\VC140.PDB" /Gd /TP /analyze- C:\USERS\WARRO\ONEDRIVE\DOCUMENTS\VISUAL STUDIO 2015\PROJECTS\KIRBY RPG 2\KIRBY RPG 2\IMAGE.CPP
^C:\USERS\WARRO\ONEDRIVE\DOCUMENTS\VISUAL STUDIO 2015\PROJECTS\KIRBY RPG 2\KIRBY RPG 2\INPUT.CPP
/c /I"C:\USERS\WARRO\ONEDRIVE\DOCUMENTS\VISUAL STUDIO 2015\PROJECTS\KIRBY RPG 2\PACKAGES\ALLEGRO.5.2.2.1\BUILD\NATIVE\INCLUDE\\" /I"C:\USERS\WARRO\ONEDRIVE\DOCUMENTS\VISUAL STUDIO 2015\PROJECTS\KIRBY RPG 2\PACKAGES\ALLEGRODEPS.1.5.0.1\BUILD\NATIVE\\INCLUDE\\" /I"C:\PROGRAM FILES (X86)\VISUAL LEAK DETECTOR\INCLUDE" /ZI /nologo /W3 /WX- /sdl /Od /Oy- /D _MBCS /Gm /EHsc /RTC1 /MDd /GS /fp:precise /Zc:wchar_t /Zc:forScope /Zc:inline /Fo"DEBUG\\" /Fd"DEBUG\VC140.PDB" /Gd /TP /analyze- C:\USERS\WARRO\ONEDRIVE\DOCUMENTS\VISUAL STUDIO 2015\PROJECTS\KIRBY RPG 2\KIRBY RPG 2\INPUT.CPP
^C:\USERS\WARRO\ONEDRIVE\DOCUMENTS\VISUAL STUDIO 2015\PROJECTS\KIRBY RPG 2\KIRBY RPG 2\RENDER.CPP
/c /I"C:\USERS\WARRO\ONEDRIVE\DOCUMENTS\VISUAL STUDIO 2015\PROJECTS\KIRBY RPG 2\PACKAGES\ALLEGRO.5.2.2.1\BUILD\NATIVE\INCLUDE\\" /I"C:\USERS\WARRO\ONEDRIVE\DOCUMENTS\VISUAL STUDIO 2015\PROJECTS\KIRBY RPG 2\PACKAGES\ALLEGRODEPS.1.5.0.1\BUILD\NATIVE\\INCLUDE\\" /I"C:\PROGRAM FILES (X86)\VISUAL LEAK DETECTOR\INCLUDE" /ZI /nologo /W3 /WX- /sdl /Od /Oy- /D _MBCS /Gm /EHsc /RTC1 /MDd /GS /fp:precise /Zc:wchar_t /Zc:forScope /Zc:inline /Fo"DEBUG\\" /Fd"DEBUG\VC140.PDB" /Gd /TP /analyze- C:\USERS\WARRO\ONEDRIVE\DOCUMENTS\VISUAL STUDIO 2015\PROJECTS\KIRBY RPG 2\KIRBY RPG 2\RENDER.CPP
^C:\USERS\WARRO\ONEDRIVE\DOCUMENTS\VISUAL STUDIO 2015\PROJECTS\KIRBY RPG 2\KIRBY RPG 2\SPRITE.CPP
/c /I"C:\USERS\WARRO\ONEDRIVE\DOCUMENTS\VISUAL STUDIO 2015\PROJECTS\KIRBY RPG 2\PACKAGES\ALLEGRO.5.2.2.1\BUILD\NATIVE\INCLUDE\\" /I"C:\USERS\WARRO\ONEDRIVE\DOCUMENTS\VISUAL STUDIO 2015\PROJECTS\KIRBY RPG 2\PACKAGES\ALLEGRODEPS.1.5.0.1\BUILD\NATIVE\\INCLUDE\\" /I"C:\PROGRAM FILES (X86)\VISUAL LEAK DETECTOR\INCLUDE" /ZI /nologo /W3 /WX- /sdl /Od /Oy- /D _MBCS /Gm /EHsc /RTC1 /MDd /GS /fp:precise /Zc:wchar_t /Zc:forScope /Zc:inline /Fo"DEBUG\\" /Fd"DEBUG\VC140.PDB" /Gd /TP /analyze- C:\USERS\WARRO\ONEDRIVE\DOCUMENTS\VISUAL STUDIO 2015\PROJECTS\KIRBY RPG 2\KIRBY RPG 2\SPRITE.CPP
^C:\USERS\WARRO\ONEDRIVE\DOCUMENTS\VISUAL STUDIO 2015\PROJECTS\KIRBY RPG 2\KIRBY RPG 2\SPRITEANIMATION.CPP
/c /I"C:\USERS\WARRO\ONEDRIVE\DOCUMENTS\VISUAL STUDIO 2015\PROJECTS\KIRBY RPG 2\PACKAGES\ALLEGRO.5.2.2.1\BUILD\NATIVE\INCLUDE\\" /I"C:\USERS\WARRO\ONEDRIVE\DOCUMENTS\VISUAL STUDIO 2015\PROJECTS\KIRBY RPG 2\PACKAGES\ALLEGRODEPS.1.5.0.1\BUILD\NATIVE\\INCLUDE\\" /I"C:\PROGRAM FILES (X86)\VISUAL LEAK DETECTOR\INCLUDE" /ZI /nologo /W3 /WX- /sdl /Od /Oy- /D _MBCS /Gm /EHsc /RTC1 /MDd /GS /fp:precise /Zc:wchar_t /Zc:forScope /Zc:inline /Fo"DEBUG\\" /Fd"DEBUG\VC140.PDB" /Gd /TP /analyze- C:\USERS\WARRO\ONEDRIVE\DOCUMENTS\VISUAL STUDIO 2015\PROJECTS\KIRBY RPG 2\KIRBY RPG 2\SPRITEANIMATION.CPP
^C:\USERS\WARRO\ONEDRIVE\DOCUMENTS\VISUAL STUDIO 2015\PROJECTS\KIRBY RPG 2\KIRBY RPG 2\TITLESCREEN.CPP
/c /I"C:\USERS\WARRO\ONEDRIVE\DOCUMENTS\VISUAL STUDIO 2015\PROJECTS\KIRBY RPG 2\PACKAGES\ALLEGRO.5.2.2.1\BUILD\NATIVE\INCLUDE\\" /I"C:\USERS\WARRO\ONEDRIVE\DOCUMENTS\VISUAL STUDIO 2015\PROJECTS\KIRBY RPG 2\PACKAGES\ALLEGRODEPS.1.5.0.1\BUILD\NATIVE\\INCLUDE\\" /I"C:\PROGRAM FILES (X86)\VISUAL LEAK DETECTOR\INCLUDE" /ZI /nologo /W3 /WX- /sdl /Od /Oy- /D _MBCS /Gm /EHsc /RTC1 /MDd /GS /fp:precise /Zc:wchar_t /Zc:forScope /Zc:inline /Fo"DEBUG\\" /Fd"DEBUG\VC140.PDB" /Gd /TP /analyze- C:\USERS\WARRO\ONEDRIVE\DOCUMENTS\VISUAL STUDIO 2015\PROJECTS\KIRBY RPG 2\KIRBY RPG 2\TITLESCREEN.CPP
^C:\USERS\WARRO\ONEDRIVE\DOCUMENTS\VISUAL STUDIO 2015\PROJECTS\KIRBY RPG 2\KIRBY RPG 2\MAINMENU.CPP
/c /I"C:\USERS\WARRO\ONEDRIVE\DOCUMENTS\VISUAL STUDIO 2015\PROJECTS\KIRBY RPG 2\PACKAGES\ALLEGRO.5.2.2.1\BUILD\NATIVE\INCLUDE\\" /I"C:\USERS\WARRO\ONEDRIVE\DOCUMENTS\VISUAL STUDIO 2015\PROJECTS\KIRBY RPG 2\PACKAGES\ALLEGRODEPS.1.5.0.1\BUILD\NATIVE\\INCLUDE\\" /I"C:\PROGRAM FILES (X86)\VISUAL LEAK DETECTOR\INCLUDE" /ZI /nologo /W3 /WX- /sdl /Od /Oy- /D _MBCS /Gm /EHsc /RTC1 /MDd /GS /fp:precise /Zc:wchar_t /Zc:forScope /Zc:inline /Fo"DEBUG\\" /Fd"DEBUG\VC140.PDB" /Gd /TP /analyze- C:\USERS\WARRO\ONEDRIVE\DOCUMENTS\VISUAL STUDIO 2015\PROJECTS\KIRBY RPG 2\KIRBY RPG 2\MAINMENU.CPP
^C:\USERS\WARRO\ONEDRIVE\DOCUMENTS\VISUAL STUDIO 2015\PROJECTS\KIRBY RPG 2\KIRBY RPG 2\PLAYER.CPP
/c /I"C:\USERS\WARRO\ONEDRIVE\DOCUMENTS\VISUAL STUDIO 2015\PROJECTS\KIRBY RPG 2\PACKAGES\ALLEGRO.5.2.2.1\BUILD\NATIVE\INCLUDE\\" /I"C:\USERS\WARRO\ONEDRIVE\DOCUMENTS\VISUAL STUDIO 2015\PROJECTS\KIRBY RPG 2\PACKAGES\ALLEGRODEPS.1.5.0.1\BUILD\NATIVE\\INCLUDE\\" /I"C:\PROGRAM FILES (X86)\VISUAL LEAK DETECTOR\INCLUDE" /ZI /nologo /W3 /WX- /sdl /Od /Oy- /D _MBCS /Gm /EHsc /RTC1 /MDd /GS /fp:precise /Zc:wchar_t /Zc:forScope /Zc:inline /Fo"DEBUG\\" /Fd"DEBUG\VC140.PDB" /Gd /TP /analyze- C:\USERS\WARRO\ONEDRIVE\DOCUMENTS\VISUAL STUDIO 2015\PROJECTS\KIRBY RPG 2\KIRBY RPG 2\PLAYER.CPP
^C:\USERS\WARRO\ONEDRIVE\DOCUMENTS\VISUAL STUDIO 2015\PROJECTS\KIRBY RPG 2\KIRBY RPG 2\KIRBYINFO.CPP
/c /I"C:\USERS\WARRO\ONEDRIVE\DOCUMENTS\VISUAL STUDIO 2015\PROJECTS\KIRBY RPG 2\PACKAGES\ALLEGRO.5.2.2.1\BUILD\NATIVE\INCLUDE\\" /I"C:\USERS\WARRO\ONEDRIVE\DOCUMENTS\VISUAL STUDIO 2015\PROJECTS\KIRBY RPG 2\PACKAGES\ALLEGRODEPS.1.5.0.1\BUILD\NATIVE\\INCLUDE\\" /I"C:\PROGRAM FILES (X86)\VISUAL LEAK DETECTOR\INCLUDE" /ZI /nologo /W3 /WX- /sdl /Od /Oy- /D _MBCS /Gm /EHsc /RTC1 /MDd /GS /fp:precise /Zc:wchar_t /Zc:forScope /Zc:inline /Fo"DEBUG\\" /Fd"DEBUG\VC140.PDB" /Gd /TP /analyze- C:\USERS\WARRO\ONEDRIVE\DOCUMENTS\VISUAL STUDIO 2015\PROJECTS\KIRBY RPG 2\KIRBY RPG 2\KIRBYINFO.CPP
^C:\USERS\WARRO\ONEDRIVE\DOCUMENTS\VISUAL STUDIO 2015\PROJECTS\KIRBY RPG 2\KIRBY RPG 2\ENEMYINFO.CPP
/c /I"C:\USERS\WARRO\ONEDRIVE\DOCUMENTS\VISUAL STUDIO 2015\PROJECTS\KIRBY RPG 2\PACKAGES\ALLEGRO.5.2.2.1\BUILD\NATIVE\INCLUDE\\" /I"C:\USERS\WARRO\ONEDRIVE\DOCUMENTS\VISUAL STUDIO 2015\PROJECTS\KIRBY RPG 2\PACKAGES\ALLEGRODEPS.1.5.0.1\BUILD\NATIVE\\INCLUDE\\" /I"C:\PROGRAM FILES (X86)\VISUAL LEAK DETECTOR\INCLUDE" /ZI /nologo /W3 /WX- /sdl /Od /Oy- /D _MBCS /Gm /EHsc /RTC1 /MDd /GS /fp:precise /Zc:wchar_t /Zc:forScope /Zc:inline /Fo"DEBUG\\" /Fd"DEBUG\VC140.PDB" /Gd /TP /analyze- C:\USERS\WARRO\ONEDRIVE\DOCUMENTS\VISUAL STUDIO 2015\PROJECTS\KIRBY RPG 2\KIRBY RPG 2\ENEMYINFO.CPP
^C:\USERS\WARRO\ONEDRIVE\DOCUMENTS\VISUAL STUDIO 2015\PROJECTS\KIRBY RPG 2\KIRBY RPG 2\STATS.CPP
/c /I"C:\USERS\WARRO\ONEDRIVE\DOCUMENTS\VISUAL STUDIO 2015\PROJECTS\KIRBY RPG 2\PACKAGES\ALLEGRO.5.2.2.1\BUILD\NATIVE\INCLUDE\\" /I"C:\USERS\WARRO\ONEDRIVE\DOCUMENTS\VISUAL STUDIO 2015\PROJECTS\KIRBY RPG 2\PACKAGES\ALLEGRODEPS.1.5.0.1\BUILD\NATIVE\\INCLUDE\\" /I"C:\PROGRAM FILES (X86)\VISUAL LEAK DETECTOR\INCLUDE" /ZI /nologo /W3 /WX- /sdl /Od /Oy- /D _MBCS /Gm /EHsc /RTC1 /MDd /GS /fp:precise /Zc:wchar_t /Zc:forScope /Zc:inline /Fo"DEBUG\\" /Fd"DEBUG\VC140.PDB" /Gd /TP /analyze- C:\USERS\WARRO\ONEDRIVE\DOCUMENTS\VISUAL STUDIO 2015\PROJECTS\KIRBY RPG 2\KIRBY RPG 2\STATS.CPP
^C:\USERS\WARRO\ONEDRIVE\DOCUMENTS\KIRBYRPG\KIRBY RPG 2\KIRBY RPG 2\AUDIO.CPP
/c /I"C:\USERS\WARRO\ONEDRIVE\DOCUMENTS\KIRBYRPG\KIRBY RPG 2\PACKAGES\ALLEGRO.5.2.2.1\BUILD\NATIVE\INCLUDE\\" /I"C:\USERS\WARRO\ONEDRIVE\DOCUMENTS\KIRBYRPG\KIRBY RPG 2\PACKAGES\ALLEGRODEPS.1.5.0.1\BUILD\NATIVE\\INCLUDE\\" /I"C:\PROGRAM FILES (X86)\VISUAL LEAK DETECTOR\INCLUDE" /ZI /nologo /W3 /WX- /sdl /Od /Oy- /D _MBCS /Gm /EHsc /RTC1 /MDd /GS /fp:precise /Zc:wchar_t /Zc:forScope /Zc:inline /Fo"DEBUG\\" /Fd"DEBUG\VC140.PDB" /Gd /TP /analyze- C:\USERS\WARRO\ONEDRIVE\DOCUMENTS\KIRBYRPG\KIRBY RPG 2\KIRBY RPG 2\AUDIO.CPP
^C:\USERS\WARRO\ONEDRIVE\DOCUMENTS\KIRBYRPG\KIRBY RPG 2\KIRBY RPG 2\DISPLAY.CPP
/c /I"C:\USERS\WARRO\ONEDRIVE\DOCUMENTS\KIRBYRPG\KIRBY RPG 2\PACKAGES\ALLEGRO.5.2.2.1\BUILD\NATIVE\INCLUDE\\" /I"C:\USERS\WARRO\ONEDRIVE\DOCUMENTS\KIRBYRPG\KIRBY RPG 2\PACKAGES\ALLEGRODEPS.1.5.0.1\BUILD\NATIVE\\INCLUDE\\" /I"C:\PROGRAM FILES (X86)\VISUAL LEAK DETECTOR\INCLUDE" /ZI /nologo /W3 /WX- /sdl /Od /Oy- /D _MBCS /Gm /EHsc /RTC1 /MDd /GS /fp:precise /Zc:wchar_t /Zc:forScope /Zc:inline /Fo"DEBUG\\" /Fd"DEBUG\VC140.PDB" /Gd /TP /analyze- C:\USERS\WARRO\ONEDRIVE\DOCUMENTS\KIRBYRPG\KIRBY RPG 2\KIRBY RPG 2\DISPLAY.CPP
^C:\USERS\WARRO\ONEDRIVE\DOCUMENTS\KIRBYRPG\KIRBY RPG 2\KIRBY RPG 2\ENEMYINFO.CPP
/c /I"C:\USERS\WARRO\ONEDRIVE\DOCUMENTS\KIRBYRPG\KIRBY RPG 2\PACKAGES\ALLEGRO.5.2.2.1\BUILD\NATIVE\INCLUDE\\" /I"C:\USERS\WARRO\ONEDRIVE\DOCUMENTS\KIRBYRPG\KIRBY RPG 2\PACKAGES\ALLEGRODEPS.1.5.0.1\BUILD\NATIVE\\INCLUDE\\" /I"C:\PROGRAM FILES (X86)\VISUAL LEAK DETECTOR\INCLUDE" /ZI /nologo /W3 /WX- /sdl /Od /Oy- /D _MBCS /Gm /EHsc /RTC1 /MDd /GS /fp:precise /Zc:wchar_t /Zc:forScope /Zc:inline /Fo"DEBUG\\" /Fd"DEBUG\VC140.PDB" /Gd /TP /analyze- C:\USERS\WARRO\ONEDRIVE\DOCUMENTS\KIRBYRPG\KIRBY RPG 2\KIRBY RPG 2\ENEMYINFO.CPP
^C:\USERS\WARRO\ONEDRIVE\DOCUMENTS\KIRBYRPG\KIRBY RPG 2\KIRBY RPG 2\FONT.CPP
/c /I"C:\USERS\WARRO\ONEDRIVE\DOCUMENTS\KIRBYRPG\KIRBY RPG 2\PACKAGES\ALLEGRO.5.2.2.1\BUILD\NATIVE\INCLUDE\\" /I"C:\USERS\WARRO\ONEDRIVE\DOCUMENTS\KIRBYRPG\KIRBY RPG 2\PACKAGES\ALLEGRODEPS.1.5.0.1\BUILD\NATIVE\\INCLUDE\\" /I"C:\PROGRAM FILES (X86)\VISUAL LEAK DETECTOR\INCLUDE" /ZI /nologo /W3 /WX- /sdl /Od /Oy- /D _MBCS /Gm /EHsc /RTC1 /MDd /GS /fp:precise /Zc:wchar_t /Zc:forScope /Zc:inline /Fo"DEBUG\\" /Fd"DEBUG\VC140.PDB" /Gd /TP /analyze- C:\USERS\WARRO\ONEDRIVE\DOCUMENTS\KIRBYRPG\KIRBY RPG 2\KIRBY RPG 2\FONT.CPP
^C:\USERS\WARRO\ONEDRIVE\DOCUMENTS\KIRBYRPG\KIRBY RPG 2\KIRBY RPG 2\IMAGE.CPP
/c /I"C:\USERS\WARRO\ONEDRIVE\DOCUMENTS\KIRBYRPG\KIRBY RPG 2\PACKAGES\ALLEGRO.5.2.2.1\BUILD\NATIVE\INCLUDE\\" /I"C:\USERS\WARRO\ONEDRIVE\DOCUMENTS\KIRBYRPG\KIRBY RPG 2\PACKAGES\ALLEGRODEPS.1.5.0.1\BUILD\NATIVE\\INCLUDE\\" /I"C:\PROGRAM FILES (X86)\VISUAL LEAK DETECTOR\INCLUDE" /ZI /nologo /W3 /WX- /sdl /Od /Oy- /D _MBCS /Gm /EHsc /RTC1 /MDd /GS /fp:precise /Zc:wchar_t /Zc:forScope /Zc:inline /Fo"DEBUG\\" /Fd"DEBUG\VC140.PDB" /Gd /TP /analyze- C:\USERS\WARRO\ONEDRIVE\DOCUMENTS\KIRBYRPG\KIRBY RPG 2\KIRBY RPG 2\IMAGE.CPP
^C:\USERS\WARRO\ONEDRIVE\DOCUMENTS\KIRBYRPG\KIRBY RPG 2\KIRBY RPG 2\INPUT.CPP
/c /I"C:\USERS\WARRO\ONEDRIVE\DOCUMENTS\KIRBYRPG\KIRBY RPG 2\PACKAGES\ALLEGRO.5.2.2.1\BUILD\NATIVE\INCLUDE\\" /I"C:\USERS\WARRO\ONEDRIVE\DOCUMENTS\KIRBYRPG\KIRBY RPG 2\PACKAGES\ALLEGRODEPS.1.5.0.1\BUILD\NATIVE\\INCLUDE\\" /I"C:\PROGRAM FILES (X86)\VISUAL LEAK DETECTOR\INCLUDE" /ZI /nologo /W3 /WX- /sdl /Od /Oy- /D _MBCS /Gm /EHsc /RTC1 /MDd /GS /fp:precise /Zc:wchar_t /Zc:forScope /Zc:inline /Fo"DEBUG\\" /Fd"DEBUG\VC140.PDB" /Gd /TP /analyze- C:\USERS\WARRO\ONEDRIVE\DOCUMENTS\KIRBYRPG\KIRBY RPG 2\KIRBY RPG 2\INPUT.CPP
^C:\USERS\WARRO\ONEDRIVE\DOCUMENTS\KIRBYRPG\KIRBY RPG 2\KIRBY RPG 2\KIRBYINFO.CPP
/c /I"C:\USERS\WARRO\ONEDRIVE\DOCUMENTS\KIRBYRPG\KIRBY RPG 2\PACKAGES\ALLEGRO.5.2.2.1\BUILD\NATIVE\INCLUDE\\" /I"C:\USERS\WARRO\ONEDRIVE\DOCUMENTS\KIRBYRPG\KIRBY RPG 2\PACKAGES\ALLEGRODEPS.1.5.0.1\BUILD\NATIVE\\INCLUDE\\" /I"C:\PROGRAM FILES (X86)\VISUAL LEAK DETECTOR\INCLUDE" /ZI /nologo /W3 /WX- /sdl /Od /Oy- /D _MBCS /Gm /EHsc /RTC1 /MDd /GS /fp:precise /Zc:wchar_t /Zc:forScope /Zc:inline /Fo"DEBUG\\" /Fd"DEBUG\VC140.PDB" /Gd /TP /analyze- C:\USERS\WARRO\ONEDRIVE\DOCUMENTS\KIRBYRPG\KIRBY RPG 2\KIRBY RPG 2\KIRBYINFO.CPP
^C:\USERS\WARRO\ONEDRIVE\DOCUMENTS\KIRBYRPG\KIRBY RPG 2\KIRBY RPG 2\MAIN.CPP
/c /I"C:\USERS\WARRO\ONEDRIVE\DOCUMENTS\KIRBYRPG\KIRBY RPG 2\PACKAGES\ALLEGRO.5.2.2.1\BUILD\NATIVE\INCLUDE\\" /I"C:\USERS\WARRO\ONEDRIVE\DOCUMENTS\KIRBYRPG\KIRBY RPG 2\PACKAGES\ALLEGRODEPS.1.5.0.1\BUILD\NATIVE\\INCLUDE\\" /I"C:\PROGRAM FILES (X86)\VISUAL LEAK DETECTOR\INCLUDE" /ZI /nologo /W3 /WX- /sdl /Od /Oy- /D _MBCS /Gm /EHsc /RTC1 /MDd /GS /fp:precise /Zc:wchar_t /Zc:forScope /Zc:inline /Fo"DEBUG\\" /Fd"DEBUG\VC140.PDB" /Gd /TP /analyze- C:\USERS\WARRO\ONEDRIVE\DOCUMENTS\KIRBYRPG\KIRBY RPG 2\KIRBY RPG 2\MAIN.CPP
^C:\USERS\WARRO\ONEDRIVE\DOCUMENTS\KIRBYRPG\KIRBY RPG 2\KIRBY RPG 2\MAINMENU.CPP
/c /I"C:\USERS\WARRO\ONEDRIVE\DOCUMENTS\KIRBYRPG\KIRBY RPG 2\PACKAGES\ALLEGRO.5.2.2.1\BUILD\NATIVE\INCLUDE\\" /I"C:\USERS\WARRO\ONEDRIVE\DOCUMENTS\KIRBYRPG\KIRBY RPG 2\PACKAGES\ALLEGRODEPS.1.5.0.1\BUILD\NATIVE\\INCLUDE\\" /I"C:\PROGRAM FILES (X86)\VISUAL LEAK DETECTOR\INCLUDE" /ZI /nologo /W3 /WX- /sdl /Od /Oy- /D _MBCS /Gm /EHsc /RTC1 /MDd /GS /fp:precise /Zc:wchar_t /Zc:forScope /Zc:inline /Fo"DEBUG\\" /Fd"DEBUG\VC140.PDB" /Gd /TP /analyze- C:\USERS\WARRO\ONEDRIVE\DOCUMENTS\KIRBYRPG\KIRBY RPG 2\KIRBY RPG 2\MAINMENU.CPP
^C:\USERS\WARRO\ONEDRIVE\DOCUMENTS\KIRBYRPG\KIRBY RPG 2\KIRBY RPG 2\PLAYER.CPP
/c /I"C:\USERS\WARRO\ONEDRIVE\DOCUMENTS\KIRBYRPG\KIRBY RPG 2\PACKAGES\ALLEGRO.5.2.2.1\BUILD\NATIVE\INCLUDE\\" /I"C:\USERS\WARRO\ONEDRIVE\DOCUMENTS\KIRBYRPG\KIRBY RPG 2\PACKAGES\ALLEGRODEPS.1.5.0.1\BUILD\NATIVE\\INCLUDE\\" /I"C:\PROGRAM FILES (X86)\VISUAL LEAK DETECTOR\INCLUDE" /ZI /nologo /W3 /WX- /sdl /Od /Oy- /D _MBCS /Gm /EHsc /RTC1 /MDd /GS /fp:precise /Zc:wchar_t /Zc:forScope /Zc:inline /Fo"DEBUG\\" /Fd"DEBUG\VC140.PDB" /Gd /TP /analyze- C:\USERS\WARRO\ONEDRIVE\DOCUMENTS\KIRBYRPG\KIRBY RPG 2\KIRBY RPG 2\PLAYER.CPP
^C:\USERS\WARRO\ONEDRIVE\DOCUMENTS\KIRBYRPG\KIRBY RPG 2\KIRBY RPG 2\RENDER.CPP
/c /I"C:\USERS\WARRO\ONEDRIVE\DOCUMENTS\KIRBYRPG\KIRBY RPG 2\PACKAGES\ALLEGRO.5.2.2.1\BUILD\NATIVE\INCLUDE\\" /I"C:\USERS\WARRO\ONEDRIVE\DOCUMENTS\KIRBYRPG\KIRBY RPG 2\PACKAGES\ALLEGRODEPS.1.5.0.1\BUILD\NATIVE\\INCLUDE\\" /I"C:\PROGRAM FILES (X86)\VISUAL LEAK DETECTOR\INCLUDE" /ZI /nologo /W3 /WX- /sdl /Od /Oy- /D _MBCS /Gm /EHsc /RTC1 /MDd /GS /fp:precise /Zc:wchar_t /Zc:forScope /Zc:inline /Fo"DEBUG\\" /Fd"DEBUG\VC140.PDB" /Gd /TP /analyze- C:\USERS\WARRO\ONEDRIVE\DOCUMENTS\KIRBYRPG\KIRBY RPG 2\KIRBY RPG 2\RENDER.CPP
^C:\USERS\WARRO\ONEDRIVE\DOCUMENTS\KIRBYRPG\KIRBY RPG 2\KIRBY RPG 2\SPRITE.CPP
/c /I"C:\USERS\WARRO\ONEDRIVE\DOCUMENTS\KIRBYRPG\KIRBY RPG 2\PACKAGES\ALLEGRO.5.2.2.1\BUILD\NATIVE\INCLUDE\\" /I"C:\USERS\WARRO\ONEDRIVE\DOCUMENTS\KIRBYRPG\KIRBY RPG 2\PACKAGES\ALLEGRODEPS.1.5.0.1\BUILD\NATIVE\\INCLUDE\\" /I"C:\PROGRAM FILES (X86)\VISUAL LEAK DETECTOR\INCLUDE" /ZI /nologo /W3 /WX- /sdl /Od /Oy- /D _MBCS /Gm /EHsc /RTC1 /MDd /GS /fp:precise /Zc:wchar_t /Zc:forScope /Zc:inline /Fo"DEBUG\\" /Fd"DEBUG\VC140.PDB" /Gd /TP /analyze- C:\USERS\WARRO\ONEDRIVE\DOCUMENTS\KIRBYRPG\KIRBY RPG 2\KIRBY RPG 2\SPRITE.CPP
^C:\USERS\WARRO\ONEDRIVE\DOCUMENTS\KIRBYRPG\KIRBY RPG 2\KIRBY RPG 2\SPRITEANIMATION.CPP
/c /I"C:\USERS\WARRO\ONEDRIVE\DOCUMENTS\KIRBYRPG\KIRBY RPG 2\PACKAGES\ALLEGRO.5.2.2.1\BUILD\NATIVE\INCLUDE\\" /I"C:\USERS\WARRO\ONEDRIVE\DOCUMENTS\KIRBYRPG\KIRBY RPG 2\PACKAGES\ALLEGRODEPS.1.5.0.1\BUILD\NATIVE\\INCLUDE\\" /I"C:\PROGRAM FILES (X86)\VISUAL LEAK DETECTOR\INCLUDE" /ZI /nologo /W3 /WX- /sdl /Od /Oy- /D _MBCS /Gm /EHsc /RTC1 /MDd /GS /fp:precise /Zc:wchar_t /Zc:forScope /Zc:inline /Fo"DEBUG\\" /Fd"DEBUG\VC140.PDB" /Gd /TP /analyze- C:\USERS\WARRO\ONEDRIVE\DOCUMENTS\KIRBYRPG\KIRBY RPG 2\KIRBY RPG 2\SPRITEANIMATION.CPP
^C:\USERS\WARRO\ONEDRIVE\DOCUMENTS\KIRBYRPG\KIRBY RPG 2\KIRBY RPG 2\STATS.CPP
/c /I"C:\USERS\WARRO\ONEDRIVE\DOCUMENTS\KIRBYRPG\KIRBY RPG 2\PACKAGES\ALLEGRO.5.2.2.1\BUILD\NATIVE\INCLUDE\\" /I"C:\USERS\WARRO\ONEDRIVE\DOCUMENTS\KIRBYRPG\KIRBY RPG 2\PACKAGES\ALLEGRODEPS.1.5.0.1\BUILD\NATIVE\\INCLUDE\\" /I"C:\PROGRAM FILES (X86)\VISUAL LEAK DETECTOR\INCLUDE" /ZI /nologo /W3 /WX- /sdl /Od /Oy- /D _MBCS /Gm /EHsc /RTC1 /MDd /GS /fp:precise /Zc:wchar_t /Zc:forScope /Zc:inline /Fo"DEBUG\\" /Fd"DEBUG\VC140.PDB" /Gd /TP /analyze- C:\USERS\WARRO\ONEDRIVE\DOCUMENTS\KIRBYRPG\KIRBY RPG 2\KIRBY RPG 2\STATS.CPP
^C:\USERS\WARRO\ONEDRIVE\DOCUMENTS\KIRBYRPG\KIRBY RPG 2\KIRBY RPG 2\TITLESCREEN.CPP
/c /I"C:\USERS\WARRO\ONEDRIVE\DOCUMENTS\KIRBYRPG\KIRBY RPG 2\PACKAGES\ALLEGRO.5.2.2.1\BUILD\NATIVE\INCLUDE\\" /I"C:\USERS\WARRO\ONEDRIVE\DOCUMENTS\KIRBYRPG\KIRBY RPG 2\PACKAGES\ALLEGRODEPS.1.5.0.1\BUILD\NATIVE\\INCLUDE\\" /I"C:\PROGRAM FILES (X86)\VISUAL LEAK DETECTOR\INCLUDE" /ZI /nologo /W3 /WX- /sdl /Od /Oy- /D _MBCS /Gm /EHsc /RTC1 /MDd /GS /fp:precise /Zc:wchar_t /Zc:forScope /Zc:inline /Fo"DEBUG\\" /Fd"DEBUG\VC140.PDB" /Gd /TP /analyze- C:\USERS\WARRO\ONEDRIVE\DOCUMENTS\KIRBYRPG\KIRBY RPG 2\KIRBY RPG 2\TITLESCREEN.CPP
^C:\USERS\WARRO\ONEDRIVE\DOCUMENTS\KIRBYRPG\KIRBY RPG 2\KIRBY RPG 2\ENEMYUNIT.CPP
/c /I"C:\USERS\WARRO\ONEDRIVE\DOCUMENTS\KIRBYRPG\KIRBY RPG 2\PACKAGES\ALLEGRO.5.2.2.1\BUILD\NATIVE\INCLUDE\\" /I"C:\USERS\WARRO\ONEDRIVE\DOCUMENTS\KIRBYRPG\KIRBY RPG 2\PACKAGES\ALLEGRODEPS.1.5.0.1\BUILD\NATIVE\\INCLUDE\\" /I"C:\PROGRAM FILES (X86)\VISUAL LEAK DETECTOR\INCLUDE" /ZI /nologo /W3 /WX- /sdl /Od /Oy- /D _MBCS /Gm /EHsc /RTC1 /MDd /GS /fp:precise /Zc:wchar_t /Zc:forScope /Zc:inline /Fo"DEBUG\\" /Fd"DEBUG\VC140.PDB" /Gd /TP /analyze- C:\USERS\WARRO\ONEDRIVE\DOCUMENTS\KIRBYRPG\KIRBY RPG 2\KIRBY RPG 2\ENEMYUNIT.CPP
^C:\USERS\WARRO\ONEDRIVE\DOCUMENTS\KIRBYRPG\KIRBY RPG 2\KIRBY RPG 2\HEROUNIT.CPP
/c /I"C:\USERS\WARRO\ONEDRIVE\DOCUMENTS\KIRBYRPG\KIRBY RPG 2\PACKAGES\ALLEGRO.5.2.2.1\BUILD\NATIVE\INCLUDE\\" /I"C:\USERS\WARRO\ONEDRIVE\DOCUMENTS\KIRBYRPG\KIRBY RPG 2\PACKAGES\ALLEGRODEPS.1.5.0.1\BUILD\NATIVE\\INCLUDE\\" /I"C:\PROGRAM FILES (X86)\VISUAL LEAK DETECTOR\INCLUDE" /ZI /nologo /W3 /WX- /sdl /Od /Oy- /D _MBCS /Gm /EHsc /RTC1 /MDd /GS /fp:precise /Zc:wchar_t /Zc:forScope /Zc:inline /Fo"DEBUG\\" /Fd"DEBUG\VC140.PDB" /Gd /TP /analyze- C:\USERS\WARRO\ONEDRIVE\DOCUMENTS\KIRBYRPG\KIRBY RPG 2\KIRBY RPG 2\HEROUNIT.CPP
^C:\USERS\WARRO\ONEDRIVE\DOCUMENTS\KIRBYRPG\KIRBY RPG 2\KIRBY RPG 2\HEROSELECT.CPP
/c /I"C:\USERS\WARRO\ONEDRIVE\DOCUMENTS\KIRBYRPG\KIRBY RPG 2\PACKAGES\ALLEGRO.5.2.2.1\BUILD\NATIVE\INCLUDE\\" /I"C:\USERS\WARRO\ONEDRIVE\DOCUMENTS\KIRBYRPG\KIRBY RPG 2\PACKAGES\ALLEGRODEPS.1.5.0.1\BUILD\NATIVE\\INCLUDE\\" /I"C:\PROGRAM FILES (X86)\VISUAL LEAK DETECTOR\INCLUDE" /ZI /nologo /W3 /WX- /sdl /Od /Oy- /D _MBCS /Gm /EHsc /RTC1 /MDd /GS /fp:precise /Zc:wchar_t /Zc:forScope /Zc:inline /Fo"DEBUG\\" /Fd"DEBUG\VC140.PDB" /Gd /TP /analyze- C:\USERS\WARRO\ONEDRIVE\DOCUMENTS\KIRBYRPG\KIRBY RPG 2\KIRBY RPG 2\HEROSELECT.CPP
^C:\USERS\WARRO\ONEDRIVE\DOCUMENTS\KIRBYRPG\KIRBY RPG 2\KIRBY RPG 2\UNIT.CPP
/c /I"C:\USERS\WARRO\ONEDRIVE\DOCUMENTS\KIRBYRPG\KIRBY RPG 2\PACKAGES\ALLEGRO.5.2.2.1\BUILD\NATIVE\INCLUDE\\" /I"C:\USERS\WARRO\ONEDRIVE\DOCUMENTS\KIRBYRPG\KIRBY RPG 2\PACKAGES\ALLEGRODEPS.1.5.0.1\BUILD\NATIVE\\INCLUDE\\" /I"C:\PROGRAM FILES (X86)\VISUAL LEAK DETECTOR\INCLUDE" /ZI /nologo /W3 /WX- /sdl /Od /Oy- /D _MBCS /Gm /EHsc /RTC1 /MDd /GS /fp:precise /Zc:wchar_t /Zc:forScope /Zc:inline /Fo"DEBUG\\" /Fd"DEBUG\VC140.PDB" /Gd /TP /analyze- C:\USERS\WARRO\ONEDRIVE\DOCUMENTS\KIRBYRPG\KIRBY RPG 2\KIRBY RPG 2\UNIT.CPP
