^C:\USERS\WARRO\ONEDRIVE\DOCUMENTS\KIRBYRPG\KIRBY RPG 2\KIRBY RPG 2\AUDIO.CPP|C:\USERS\WARRO\ONEDRIVE\DOCUMENTS\KIRBYRPG\KIRBY RPG 2\KIRBY RPG 2\DISPLAY.CPP|C:\USERS\WARRO\ONEDRIVE\DOCUMENTS\KIRBYRPG\KIRBY RPG 2\KIRBY RPG 2\ENEMYINFO.CPP|C:\USERS\WARRO\ONEDRIVE\DOCUMENTS\KIRBYRPG\KIRBY RPG 2\KIRBY RPG 2\FONT.CPP|C:\USERS\WARRO\ONEDRIVE\DOCUMENTS\KIRBYRPG\KIRBY RPG 2\KIRBY RPG 2\IMAGE.CPP|C:\USERS\WARRO\ONEDRIVE\DOCUMENTS\KIRBYRPG\KIRBY RPG 2\KIRBY RPG 2\INPUT.CPP|C:\USERS\WARRO\ONEDRIVE\DOCUMENTS\KIRBYRPG\KIRBY RPG 2\KIRBY RPG 2\KIRBYINFO.CPP|C:\USERS\WARRO\ONEDRIVE\DOCUMENTS\KIRBYRPG\KIRBY RPG 2\KIRBY RPG 2\MAIN.CPP|C:\USERS\WARRO\ONEDRIVE\DOCUMENTS\KIRBYRPG\KIRBY RPG 2\KIRBY RPG 2\MAINMENU.CPP|C:\USERS\WARRO\ONEDRIVE\DOCUMENTS\KIRBYRPG\KIRBY RPG 2\KIRBY RPG 2\PLAYER.CPP|C:\USERS\WARRO\ONEDRIVE\DOCUMENTS\KIRBYRPG\KIRBY RPG 2\KIRBY RPG 2\RENDER.CPP|C:\USERS\WARRO\ONEDRIVE\DOCUMENTS\KIRBYRPG\KIRBY RPG 2\KIRBY RPG 2\SPRITE.CPP|C:\USERS\WARRO\ONEDRIVE\DOCUMENTS\KIRBYRPG\KIRBY RPG 2\KIRBY RPG 2\SPRITEANIMATION.CPP|C:\USERS\WARRO\ONEDRIVE\DOCUMENTS\KIRBYRPG\KIRBY RPG 2\KIRBY RPG 2\STATS.CPP|C:\USERS\WARRO\ONEDRIVE\DOCUMENTS\KIRBYRPG\KIRBY RPG 2\KIRBY RPG 2\TITLESCREEN.CPP
C:\USERS\WARRO\ONEDRIVE\DOCUMENTS\KIRBYRPG\KIRBY RPG 2\KIRBY RPG 2\DEBUG\VC140.PDB
C:\USERS\WARRO\ONEDRIVE\DOCUMENTS\KIRBYRPG\KIRBY RPG 2\KIRBY RPG 2\DEBUG\VC140.IDB
C:\USERS\WARRO\ONEDRIVE\DOCUMENTS\KIRBYRPG\KIRBY RPG 2\KIRBY RPG 2\DEBUG\AUDIO.OBJ
C:\USERS\WARRO\ONEDRIVE\DOCUMENTS\KIRBYRPG\KIRBY RPG 2\KIRBY RPG 2\DEBUG\DISPLAY.OBJ
C:\USERS\WARRO\ONEDRIVE\DOCUMENTS\KIRBYRPG\KIRBY RPG 2\KIRBY RPG 2\DEBUG\ENEMYINFO.OBJ
C:\USERS\WARRO\ONEDRIVE\DOCUMENTS\KIRBYRPG\KIRBY RPG 2\KIRBY RPG 2\DEBUG\FONT.OBJ
C:\USERS\WARRO\ONEDRIVE\DOCUMENTS\KIRBYRPG\KIRBY RPG 2\KIRBY RPG 2\DEBUG\IMAGE.OBJ
C:\USERS\WARRO\ONEDRIVE\DOCUMENTS\KIRBYRPG\KIRBY RPG 2\KIRBY RPG 2\DEBUG\INPUT.OBJ
C:\USERS\WARRO\ONEDRIVE\DOCUMENTS\KIRBYRPG\KIRBY RPG 2\KIRBY RPG 2\DEBUG\KIRBYINFO.OBJ
C:\USERS\WARRO\ONEDRIVE\DOCUMENTS\KIRBYRPG\KIRBY RPG 2\KIRBY RPG 2\DEBUG\MAIN.OBJ
C:\USERS\WARRO\ONEDRIVE\DOCUMENTS\KIRBYRPG\KIRBY RPG 2\KIRBY RPG 2\DEBUG\MAINMENU.OBJ
C:\USERS\WARRO\ONEDRIVE\DOCUMENTS\KIRBYRPG\KIRBY RPG 2\KIRBY RPG 2\DEBUG\PLAYER.OBJ
C:\USERS\WARRO\ONEDRIVE\DOCUMENTS\KIRBYRPG\KIRBY RPG 2\KIRBY RPG 2\DEBUG\RENDER.OBJ
C:\USERS\WARRO\ONEDRIVE\DOCUMENTS\KIRBYRPG\KIRBY RPG 2\KIRBY RPG 2\DEBUG\SPRITE.OBJ
C:\USERS\WARRO\ONEDRIVE\DOCUMENTS\KIRBYRPG\KIRBY RPG 2\KIRBY RPG 2\DEBUG\SPRITEANIMATION.OBJ
C:\USERS\WARRO\ONEDRIVE\DOCUMENTS\KIRBYRPG\KIRBY RPG 2\KIRBY RPG 2\DEBUG\STATS.OBJ
C:\USERS\WARRO\ONEDRIVE\DOCUMENTS\KIRBYRPG\KIRBY RPG 2\KIRBY RPG 2\DEBUG\TITLESCREEN.OBJ
^C:\USERS\WARRO\ONEDRIVE\DOCUMENTS\KIRBYRPG\KIRBY RPG 2\KIRBY RPG 2\AUDIO.CPP
C:\USERS\WARRO\ONEDRIVE\DOCUMENTS\KIRBYRPG\KIRBY RPG 2\KIRBY RPG 2\DEBUG\VC140.PDB
^C:\USERS\WARRO\ONEDRIVE\DOCUMENTS\KIRBYRPG\KIRBY RPG 2\KIRBY RPG 2\DISPLAY.CPP
C:\USERS\WARRO\ONEDRIVE\DOCUMENTS\KIRBYRPG\KIRBY RPG 2\KIRBY RPG 2\DEBUG\VC140.PDB
C:\USERS\WARRO\ONEDRIVE\DOCUMENTS\KIRBYRPG\KIRBY RPG 2\KIRBY RPG 2\DEBUG\VC140.IDB
C:\USERS\WARRO\ONEDRIVE\DOCUMENTS\KIRBYRPG\KIRBY RPG 2\KIRBY RPG 2\DEBUG\DISPLAY.OBJ
^C:\USERS\WARRO\ONEDRIVE\DOCUMENTS\KIRBYRPG\KIRBY RPG 2\KIRBY RPG 2\ENEMYINFO.CPP
C:\USERS\WARRO\ONEDRIVE\DOCUMENTS\KIRBYRPG\KIRBY RPG 2\KIRBY RPG 2\DEBUG\VC140.PDB
C:\USERS\WARRO\ONEDRIVE\DOCUMENTS\KIRBYRPG\KIRBY RPG 2\KIRBY RPG 2\DEBUG\VC140.IDB
C:\USERS\WARRO\ONEDRIVE\DOCUMENTS\KIRBYRPG\KIRBY RPG 2\KIRBY RPG 2\DEBUG\ENEMYINFO.OBJ
^C:\USERS\WARRO\ONEDRIVE\DOCUMENTS\KIRBYRPG\KIRBY RPG 2\KIRBY RPG 2\FONT.CPP
C:\USERS\WARRO\ONEDRIVE\DOCUMENTS\KIRBYRPG\KIRBY RPG 2\KIRBY RPG 2\DEBUG\VC140.PDB
^C:\USERS\WARRO\ONEDRIVE\DOCUMENTS\KIRBYRPG\KIRBY RPG 2\KIRBY RPG 2\IMAGE.CPP
C:\USERS\WARRO\ONEDRIVE\DOCUMENTS\KIRBYRPG\KIRBY RPG 2\KIRBY RPG 2\DEBUG\VC140.PDB
^C:\USERS\WARRO\ONEDRIVE\DOCUMENTS\KIRBYRPG\KIRBY RPG 2\KIRBY RPG 2\INPUT.CPP
C:\USERS\WARRO\ONEDRIVE\DOCUMENTS\KIRBYRPG\KIRBY RPG 2\KIRBY RPG 2\DEBUG\VC140.PDB
^C:\USERS\WARRO\ONEDRIVE\DOCUMENTS\KIRBYRPG\KIRBY RPG 2\KIRBY RPG 2\KIRBYINFO.CPP
C:\USERS\WARRO\ONEDRIVE\DOCUMENTS\KIRBYRPG\KIRBY RPG 2\KIRBY RPG 2\DEBUG\VC140.PDB
^C:\USERS\WARRO\ONEDRIVE\DOCUMENTS\KIRBYRPG\KIRBY RPG 2\KIRBY RPG 2\MAIN.CPP
C:\USERS\WARRO\ONEDRIVE\DOCUMENTS\KIRBYRPG\KIRBY RPG 2\KIRBY RPG 2\DEBUG\VC140.PDB
C:\USERS\WARRO\ONEDRIVE\DOCUMENTS\KIRBYRPG\KIRBY RPG 2\KIRBY RPG 2\DEBUG\VC140.IDB
C:\USERS\WARRO\ONEDRIVE\DOCUMENTS\KIRBYRPG\KIRBY RPG 2\KIRBY RPG 2\DEBUG\MAIN.OBJ
^C:\USERS\WARRO\ONEDRIVE\DOCUMENTS\KIRBYRPG\KIRBY RPG 2\KIRBY RPG 2\MAINMENU.CPP
C:\USERS\WARRO\ONEDRIVE\DOCUMENTS\KIRBYRPG\KIRBY RPG 2\KIRBY RPG 2\DEBUG\VC140.PDB
^C:\USERS\WARRO\ONEDRIVE\DOCUMENTS\KIRBYRPG\KIRBY RPG 2\KIRBY RPG 2\PLAYER.CPP
C:\USERS\WARRO\ONEDRIVE\DOCUMENTS\KIRBYRPG\KIRBY RPG 2\KIRBY RPG 2\DEBUG\VC140.PDB
C:\USERS\WARRO\ONEDRIVE\DOCUMENTS\KIRBYRPG\KIRBY RPG 2\KIRBY RPG 2\DEBUG\VC140.IDB
C:\USERS\WARRO\ONEDRIVE\DOCUMENTS\KIRBYRPG\KIRBY RPG 2\KIRBY RPG 2\DEBUG\PLAYER.OBJ
^C:\USERS\WARRO\ONEDRIVE\DOCUMENTS\KIRBYRPG\KIRBY RPG 2\KIRBY RPG 2\RENDER.CPP
C:\USERS\WARRO\ONEDRIVE\DOCUMENTS\KIRBYRPG\KIRBY RPG 2\KIRBY RPG 2\DEBUG\VC140.PDB
^C:\USERS\WARRO\ONEDRIVE\DOCUMENTS\KIRBYRPG\KIRBY RPG 2\KIRBY RPG 2\SPRITE.CPP
C:\USERS\WARRO\ONEDRIVE\DOCUMENTS\KIRBYRPG\KIRBY RPG 2\KIRBY RPG 2\DEBUG\VC140.PDB
^C:\USERS\WARRO\ONEDRIVE\DOCUMENTS\KIRBYRPG\KIRBY RPG 2\KIRBY RPG 2\SPRITEANIMATION.CPP
C:\USERS\WARRO\ONEDRIVE\DOCUMENTS\KIRBYRPG\KIRBY RPG 2\KIRBY RPG 2\DEBUG\VC140.PDB
^C:\USERS\WARRO\ONEDRIVE\DOCUMENTS\KIRBYRPG\KIRBY RPG 2\KIRBY RPG 2\STATS.CPP
C:\USERS\WARRO\ONEDRIVE\DOCUMENTS\KIRBYRPG\KIRBY RPG 2\KIRBY RPG 2\DEBUG\VC140.PDB
C:\USERS\WARRO\ONEDRIVE\DOCUMENTS\KIRBYRPG\KIRBY RPG 2\KIRBY RPG 2\DEBUG\VC140.IDB
C:\USERS\WARRO\ONEDRIVE\DOCUMENTS\KIRBYRPG\KIRBY RPG 2\KIRBY RPG 2\DEBUG\STATS.OBJ
^C:\USERS\WARRO\ONEDRIVE\DOCUMENTS\KIRBYRPG\KIRBY RPG 2\KIRBY RPG 2\TITLESCREEN.CPP
C:\USERS\WARRO\ONEDRIVE\DOCUMENTS\KIRBYRPG\KIRBY RPG 2\KIRBY RPG 2\DEBUG\VC140.PDB
^C:\USERS\WARRO\ONEDRIVE\DOCUMENTS\KIRBYRPG\KIRBY RPG 2\KIRBY RPG 2\ENEMYINFO.CPP|C:\USERS\WARRO\ONEDRIVE\DOCUMENTS\KIRBYRPG\KIRBY RPG 2\KIRBY RPG 2\KIRBYINFO.CPP|C:\USERS\WARRO\ONEDRIVE\DOCUMENTS\KIRBYRPG\KIRBY RPG 2\KIRBY RPG 2\MAIN.CPP|C:\USERS\WARRO\ONEDRIVE\DOCUMENTS\KIRBYRPG\KIRBY RPG 2\KIRBY RPG 2\STATS.CPP
C:\USERS\WARRO\ONEDRIVE\DOCUMENTS\KIRBYRPG\KIRBY RPG 2\KIRBY RPG 2\DEBUG\VC140.PDB
C:\USERS\WARRO\ONEDRIVE\DOCUMENTS\KIRBYRPG\KIRBY RPG 2\KIRBY RPG 2\DEBUG\VC140.IDB
C:\USERS\WARRO\ONEDRIVE\DOCUMENTS\KIRBYRPG\KIRBY RPG 2\KIRBY RPG 2\DEBUG\ENEMYINFO.OBJ
C:\USERS\WARRO\ONEDRIVE\DOCUMENTS\KIRBYRPG\KIRBY RPG 2\KIRBY RPG 2\DEBUG\KIRBYINFO.OBJ
C:\USERS\WARRO\ONEDRIVE\DOCUMENTS\KIRBYRPG\KIRBY RPG 2\KIRBY RPG 2\DEBUG\STATS.OBJ
C:\USERS\WARRO\ONEDRIVE\DOCUMENTS\KIRBYRPG\KIRBY RPG 2\KIRBY RPG 2\DEBUG\MAIN.OBJ
^C:\USERS\WARRO\ONEDRIVE\DOCUMENTS\KIRBYRPG\KIRBY RPG 2\KIRBY RPG 2\DISPLAY.CPP|C:\USERS\WARRO\ONEDRIVE\DOCUMENTS\KIRBYRPG\KIRBY RPG 2\KIRBY RPG 2\STATS.CPP
C:\USERS\WARRO\ONEDRIVE\DOCUMENTS\KIRBYRPG\KIRBY RPG 2\KIRBY RPG 2\DEBUG\VC140.PDB
C:\USERS\WARRO\ONEDRIVE\DOCUMENTS\KIRBYRPG\KIRBY RPG 2\KIRBY RPG 2\DEBUG\VC140.IDB
C:\USERS\WARRO\ONEDRIVE\DOCUMENTS\KIRBYRPG\KIRBY RPG 2\KIRBY RPG 2\DEBUG\DISPLAY.OBJ
C:\USERS\WARRO\ONEDRIVE\DOCUMENTS\KIRBYRPG\KIRBY RPG 2\KIRBY RPG 2\DEBUG\STATS.OBJ
^C:\USERS\WARRO\ONEDRIVE\DOCUMENTS\KIRBYRPG\KIRBY RPG 2\KIRBY RPG 2\ENEMYINFO.CPP|C:\USERS\WARRO\ONEDRIVE\DOCUMENTS\KIRBYRPG\KIRBY RPG 2\KIRBY RPG 2\KIRBYINFO.CPP|C:\USERS\WARRO\ONEDRIVE\DOCUMENTS\KIRBYRPG\KIRBY RPG 2\KIRBY RPG 2\STATS.CPP
C:\USERS\WARRO\ONEDRIVE\DOCUMENTS\KIRBYRPG\KIRBY RPG 2\KIRBY RPG 2\DEBUG\VC140.PDB
C:\USERS\WARRO\ONEDRIVE\DOCUMENTS\KIRBYRPG\KIRBY RPG 2\KIRBY RPG 2\DEBUG\VC140.IDB
C:\USERS\WARRO\ONEDRIVE\DOCUMENTS\KIRBYRPG\KIRBY RPG 2\KIRBY RPG 2\DEBUG\STATS.OBJ
^C:\USERS\WARRO\ONEDRIVE\DOCUMENTS\KIRBYRPG\KIRBY RPG 2\KIRBY RPG 2\ENEMYINFO.CPP|C:\USERS\WARRO\ONEDRIVE\DOCUMENTS\KIRBYRPG\KIRBY RPG 2\KIRBY RPG 2\KIRBYINFO.CPP|C:\USERS\WARRO\ONEDRIVE\DOCUMENTS\KIRBYRPG\KIRBY RPG 2\KIRBY RPG 2\MAIN.CPP|C:\USERS\WARRO\ONEDRIVE\DOCUMENTS\KIRBYRPG\KIRBY RPG 2\KIRBY RPG 2\PLAYER.CPP|C:\USERS\WARRO\ONEDRIVE\DOCUMENTS\KIRBYRPG\KIRBY RPG 2\KIRBY RPG 2\STATS.CPP
C:\USERS\WARRO\ONEDRIVE\DOCUMENTS\KIRBYRPG\KIRBY RPG 2\KIRBY RPG 2\DEBUG\VC140.PDB
C:\USERS\WARRO\ONEDRIVE\DOCUMENTS\KIRBYRPG\KIRBY RPG 2\KIRBY RPG 2\DEBUG\VC140.IDB
C:\USERS\WARRO\ONEDRIVE\DOCUMENTS\KIRBYRPG\KIRBY RPG 2\KIRBY RPG 2\DEBUG\MAIN.OBJ
C:\USERS\WARRO\ONEDRIVE\DOCUMENTS\KIRBYRPG\KIRBY RPG 2\KIRBY RPG 2\DEBUG\PLAYER.OBJ
C:\USERS\WARRO\ONEDRIVE\DOCUMENTS\KIRBYRPG\KIRBY RPG 2\KIRBY RPG 2\DEBUG\ENEMYINFO.OBJ
C:\USERS\WARRO\ONEDRIVE\DOCUMENTS\KIRBYRPG\KIRBY RPG 2\KIRBY RPG 2\DEBUG\KIRBYINFO.OBJ
C:\USERS\WARRO\ONEDRIVE\DOCUMENTS\KIRBYRPG\KIRBY RPG 2\KIRBY RPG 2\DEBUG\STATS.OBJ
^C:\USERS\WARRO\ONEDRIVE\DOCUMENTS\KIRBYRPG\KIRBY RPG 2\KIRBY RPG 2\ENEMYUNIT.CPP|C:\USERS\WARRO\ONEDRIVE\DOCUMENTS\KIRBYRPG\KIRBY RPG 2\KIRBY RPG 2\HEROUNIT.CPP|C:\USERS\WARRO\ONEDRIVE\DOCUMENTS\KIRBYRPG\KIRBY RPG 2\KIRBY RPG 2\STATS.CPP
C:\USERS\WARRO\ONEDRIVE\DOCUMENTS\KIRBYRPG\KIRBY RPG 2\KIRBY RPG 2\DEBUG\VC140.PDB
C:\USERS\WARRO\ONEDRIVE\DOCUMENTS\KIRBYRPG\KIRBY RPG 2\KIRBY RPG 2\DEBUG\VC140.IDB
C:\USERS\WARRO\ONEDRIVE\DOCUMENTS\KIRBYRPG\KIRBY RPG 2\KIRBY RPG 2\DEBUG\ENEMYUNIT.OBJ
C:\USERS\WARRO\ONEDRIVE\DOCUMENTS\KIRBYRPG\KIRBY RPG 2\KIRBY RPG 2\DEBUG\HEROUNIT.OBJ
C:\USERS\WARRO\ONEDRIVE\DOCUMENTS\KIRBYRPG\KIRBY RPG 2\KIRBY RPG 2\DEBUG\STATS.OBJ
^C:\USERS\WARRO\ONEDRIVE\DOCUMENTS\KIRBYRPG\KIRBY RPG 2\KIRBY RPG 2\ENEMYUNIT.CPP
C:\USERS\WARRO\ONEDRIVE\DOCUMENTS\KIRBYRPG\KIRBY RPG 2\KIRBY RPG 2\DEBUG\VC140.PDB
^C:\USERS\WARRO\ONEDRIVE\DOCUMENTS\KIRBYRPG\KIRBY RPG 2\KIRBY RPG 2\HEROUNIT.CPP
C:\USERS\WARRO\ONEDRIVE\DOCUMENTS\KIRBYRPG\KIRBY RPG 2\KIRBY RPG 2\DEBUG\VC140.PDB
^C:\USERS\WARRO\ONEDRIVE\DOCUMENTS\KIRBYRPG\KIRBY RPG 2\KIRBY RPG 2\HEROSELECT.CPP|C:\USERS\WARRO\ONEDRIVE\DOCUMENTS\KIRBYRPG\KIRBY RPG 2\KIRBY RPG 2\HEROUNIT.CPP|C:\USERS\WARRO\ONEDRIVE\DOCUMENTS\KIRBYRPG\KIRBY RPG 2\KIRBY RPG 2\MAIN.CPP
C:\USERS\WARRO\ONEDRIVE\DOCUMENTS\KIRBYRPG\KIRBY RPG 2\KIRBY RPG 2\DEBUG\VC140.PDB
C:\USERS\WARRO\ONEDRIVE\DOCUMENTS\KIRBYRPG\KIRBY RPG 2\KIRBY RPG 2\DEBUG\VC140.IDB
C:\USERS\WARRO\ONEDRIVE\DOCUMENTS\KIRBYRPG\KIRBY RPG 2\KIRBY RPG 2\DEBUG\HEROSELECT.OBJ
C:\USERS\WARRO\ONEDRIVE\DOCUMENTS\KIRBYRPG\KIRBY RPG 2\KIRBY RPG 2\DEBUG\HEROUNIT.OBJ
C:\USERS\WARRO\ONEDRIVE\DOCUMENTS\KIRBYRPG\KIRBY RPG 2\KIRBY RPG 2\DEBUG\MAIN.OBJ
^C:\USERS\WARRO\ONEDRIVE\DOCUMENTS\KIRBYRPG\KIRBY RPG 2\KIRBY RPG 2\HEROSELECT.CPP
C:\USERS\WARRO\ONEDRIVE\DOCUMENTS\KIRBYRPG\KIRBY RPG 2\KIRBY RPG 2\DEBUG\VC140.PDB
C:\USERS\WARRO\ONEDRIVE\DOCUMENTS\KIRBYRPG\KIRBY RPG 2\KIRBY RPG 2\DEBUG\VC140.IDB
C:\USERS\WARRO\ONEDRIVE\DOCUMENTS\KIRBYRPG\KIRBY RPG 2\KIRBY RPG 2\DEBUG\HEROSELECT.OBJ
^C:\USERS\WARRO\ONEDRIVE\DOCUMENTS\KIRBYRPG\KIRBY RPG 2\KIRBY RPG 2\UNIT.CPP
C:\USERS\WARRO\ONEDRIVE\DOCUMENTS\KIRBYRPG\KIRBY RPG 2\KIRBY RPG 2\DEBUG\VC140.PDB
C:\USERS\WARRO\ONEDRIVE\DOCUMENTS\KIRBYRPG\KIRBY RPG 2\KIRBY RPG 2\DEBUG\VC140.IDB
C:\USERS\WARRO\ONEDRIVE\DOCUMENTS\KIRBYRPG\KIRBY RPG 2\KIRBY RPG 2\DEBUG\UNIT.OBJ
^C:\USERS\WARRO\ONEDRIVE\DOCUMENTS\KIRBYRPG\KIRBY RPG 2\KIRBY RPG 2\ENEMYINFO.CPP|C:\USERS\WARRO\ONEDRIVE\DOCUMENTS\KIRBYRPG\KIRBY RPG 2\KIRBY RPG 2\KIRBYINFO.CPP|C:\USERS\WARRO\ONEDRIVE\DOCUMENTS\KIRBYRPG\KIRBY RPG 2\KIRBY RPG 2\STATS.CPP|C:\USERS\WARRO\ONEDRIVE\DOCUMENTS\KIRBYRPG\KIRBY RPG 2\KIRBY RPG 2\UNIT.CPP
C:\USERS\WARRO\ONEDRIVE\DOCUMENTS\KIRBYRPG\KIRBY RPG 2\KIRBY RPG 2\DEBUG\VC140.PDB
C:\USERS\WARRO\ONEDRIVE\DOCUMENTS\KIRBYRPG\KIRBY RPG 2\KIRBY RPG 2\DEBUG\VC140.IDB
C:\USERS\WARRO\ONEDRIVE\DOCUMENTS\KIRBYRPG\KIRBY RPG 2\KIRBY RPG 2\DEBUG\UNIT.OBJ
^C:\USERS\WARRO\ONEDRIVE\DOCUMENTS\KIRBYRPG\KIRBY RPG 2\KIRBY RPG 2\HEROSELECT.CPP|C:\USERS\WARRO\ONEDRIVE\DOCUMENTS\KIRBYRPG\KIRBY RPG 2\KIRBY RPG 2\MAIN.CPP|C:\USERS\WARRO\ONEDRIVE\DOCUMENTS\KIRBYRPG\KIRBY RPG 2\KIRBY RPG 2\UNIT.CPP
C:\USERS\WARRO\ONEDRIVE\DOCUMENTS\KIRBYRPG\KIRBY RPG 2\KIRBY RPG 2\DEBUG\VC140.PDB
C:\USERS\WARRO\ONEDRIVE\DOCUMENTS\KIRBYRPG\KIRBY RPG 2\KIRBY RPG 2\DEBUG\VC140.IDB
C:\USERS\WARRO\ONEDRIVE\DOCUMENTS\KIRBYRPG\KIRBY RPG 2\KIRBY RPG 2\DEBUG\MAIN.OBJ
C:\USERS\WARRO\ONEDRIVE\DOCUMENTS\KIRBYRPG\KIRBY RPG 2\KIRBY RPG 2\DEBUG\UNIT.OBJ
^C:\USERS\WARRO\ONEDRIVE\DOCUMENTS\KIRBYRPG\KIRBY RPG 2\KIRBY RPG 2\HEROSELECT.CPP|C:\USERS\WARRO\ONEDRIVE\DOCUMENTS\KIRBYRPG\KIRBY RPG 2\KIRBY RPG 2\MAIN.CPP
C:\USERS\WARRO\ONEDRIVE\DOCUMENTS\KIRBYRPG\KIRBY RPG 2\KIRBY RPG 2\DEBUG\VC140.PDB
C:\USERS\WARRO\ONEDRIVE\DOCUMENTS\KIRBYRPG\KIRBY RPG 2\KIRBY RPG 2\DEBUG\VC140.IDB
C:\USERS\WARRO\ONEDRIVE\DOCUMENTS\KIRBYRPG\KIRBY RPG 2\KIRBY RPG 2\DEBUG\HEROSELECT.OBJ
C:\USERS\WARRO\ONEDRIVE\DOCUMENTS\KIRBYRPG\KIRBY RPG 2\KIRBY RPG 2\DEBUG\MAIN.OBJ
^C:\USERS\WARRO\ONEDRIVE\DOCUMENTS\KIRBYRPG\KIRBY RPG 2\KIRBY RPG 2\INPUT.CPP|C:\USERS\WARRO\ONEDRIVE\DOCUMENTS\KIRBYRPG\KIRBY RPG 2\KIRBY RPG 2\MAIN.CPP
C:\USERS\WARRO\ONEDRIVE\DOCUMENTS\KIRBYRPG\KIRBY RPG 2\KIRBY RPG 2\DEBUG\VC140.PDB
C:\USERS\WARRO\ONEDRIVE\DOCUMENTS\KIRBYRPG\KIRBY RPG 2\KIRBY RPG 2\DEBUG\VC140.IDB
C:\USERS\WARRO\ONEDRIVE\DOCUMENTS\KIRBYRPG\KIRBY RPG 2\KIRBY RPG 2\DEBUG\INPUT.OBJ
C:\USERS\WARRO\ONEDRIVE\DOCUMENTS\KIRBYRPG\KIRBY RPG 2\KIRBY RPG 2\DEBUG\MAIN.OBJ
^C:\USERS\WARRO\ONEDRIVE\DOCUMENTS\KIRBYRPG\KIRBY RPG 2\KIRBY RPG 2\ENEMYINFO.CPP|C:\USERS\WARRO\ONEDRIVE\DOCUMENTS\KIRBYRPG\KIRBY RPG 2\KIRBY RPG 2\HEROSELECT.CPP|C:\USERS\WARRO\ONEDRIVE\DOCUMENTS\KIRBYRPG\KIRBY RPG 2\KIRBY RPG 2\KIRBYINFO.CPP|C:\USERS\WARRO\ONEDRIVE\DOCUMENTS\KIRBYRPG\KIRBY RPG 2\KIRBY RPG 2\MAIN.CPP|C:\USERS\WARRO\ONEDRIVE\DOCUMENTS\KIRBYRPG\KIRBY RPG 2\KIRBY RPG 2\PLAYER.CPP
C:\USERS\WARRO\ONEDRIVE\DOCUMENTS\KIRBYRPG\KIRBY RPG 2\KIRBY RPG 2\DEBUG\VC140.PDB
C:\USERS\WARRO\ONEDRIVE\DOCUMENTS\KIRBYRPG\KIRBY RPG 2\KIRBY RPG 2\DEBUG\VC140.IDB
C:\USERS\WARRO\ONEDRIVE\DOCUMENTS\KIRBYRPG\KIRBY RPG 2\KIRBY RPG 2\DEBUG\MAIN.OBJ
C:\USERS\WARRO\ONEDRIVE\DOCUMENTS\KIRBYRPG\KIRBY RPG 2\KIRBY RPG 2\DEBUG\PLAYER.OBJ
C:\USERS\WARRO\ONEDRIVE\DOCUMENTS\KIRBYRPG\KIRBY RPG 2\KIRBY RPG 2\DEBUG\ENEMYINFO.OBJ
^C:\USERS\WARRO\ONEDRIVE\DOCUMENTS\KIRBYRPG\KIRBY RPG 2\KIRBY RPG 2\MAIN.CPP|C:\USERS\WARRO\ONEDRIVE\DOCUMENTS\KIRBYRPG\KIRBY RPG 2\KIRBY RPG 2\PLAYER.CPP|C:\USERS\WARRO\ONEDRIVE\DOCUMENTS\KIRBYRPG\KIRBY RPG 2\KIRBY RPG 2\UNIT.CPP
C:\USERS\WARRO\ONEDRIVE\DOCUMENTS\KIRBYRPG\KIRBY RPG 2\KIRBY RPG 2\DEBUG\VC140.PDB
C:\USERS\WARRO\ONEDRIVE\DOCUMENTS\KIRBYRPG\KIRBY RPG 2\KIRBY RPG 2\DEBUG\VC140.IDB
C:\USERS\WARRO\ONEDRIVE\DOCUMENTS\KIRBYRPG\KIRBY RPG 2\KIRBY RPG 2\DEBUG\MAIN.OBJ
C:\USERS\WARRO\ONEDRIVE\DOCUMENTS\KIRBYRPG\KIRBY RPG 2\KIRBY RPG 2\DEBUG\PLAYER.OBJ
C:\USERS\WARRO\ONEDRIVE\DOCUMENTS\KIRBYRPG\KIRBY RPG 2\KIRBY RPG 2\DEBUG\UNIT.OBJ
^C:\USERS\WARRO\ONEDRIVE\DOCUMENTS\KIRBYRPG\KIRBY RPG 2\KIRBY RPG 2\MAIN.CPP|C:\USERS\WARRO\ONEDRIVE\DOCUMENTS\KIRBYRPG\KIRBY RPG 2\KIRBY RPG 2\PLAYER.CPP
C:\USERS\WARRO\ONEDRIVE\DOCUMENTS\KIRBYRPG\KIRBY RPG 2\KIRBY RPG 2\DEBUG\VC140.PDB
C:\USERS\WARRO\ONEDRIVE\DOCUMENTS\KIRBYRPG\KIRBY RPG 2\KIRBY RPG 2\DEBUG\VC140.IDB
C:\USERS\WARRO\ONEDRIVE\DOCUMENTS\KIRBYRPG\KIRBY RPG 2\KIRBY RPG 2\DEBUG\MAIN.OBJ
C:\USERS\WARRO\ONEDRIVE\DOCUMENTS\KIRBYRPG\KIRBY RPG 2\KIRBY RPG 2\DEBUG\PLAYER.OBJ
^C:\USERS\WARRO\ONEDRIVE\DOCUMENTS\KIRBYRPG\KIRBY RPG 2\KIRBY RPG 2\ENEMYINFO.CPP|C:\USERS\WARRO\ONEDRIVE\DOCUMENTS\KIRBYRPG\KIRBY RPG 2\KIRBY RPG 2\MAIN.CPP|C:\USERS\WARRO\ONEDRIVE\DOCUMENTS\KIRBYRPG\KIRBY RPG 2\KIRBY RPG 2\PLAYER.CPP|C:\USERS\WARRO\ONEDRIVE\DOCUMENTS\KIRBYRPG\KIRBY RPG 2\KIRBY RPG 2\UNIT.CPP
C:\USERS\WARRO\ONEDRIVE\DOCUMENTS\KIRBYRPG\KIRBY RPG 2\KIRBY RPG 2\DEBUG\VC140.PDB
C:\USERS\WARRO\ONEDRIVE\DOCUMENTS\KIRBYRPG\KIRBY RPG 2\KIRBY RPG 2\DEBUG\VC140.IDB
C:\USERS\WARRO\ONEDRIVE\DOCUMENTS\KIRBYRPG\KIRBY RPG 2\KIRBY RPG 2\DEBUG\ENEMYINFO.OBJ
C:\USERS\WARRO\ONEDRIVE\DOCUMENTS\KIRBYRPG\KIRBY RPG 2\KIRBY RPG 2\DEBUG\UNIT.OBJ
C:\USERS\WARRO\ONEDRIVE\DOCUMENTS\KIRBYRPG\KIRBY RPG 2\KIRBY RPG 2\DEBUG\MAIN.OBJ
C:\USERS\WARRO\ONEDRIVE\DOCUMENTS\KIRBYRPG\KIRBY RPG 2\KIRBY RPG 2\DEBUG\PLAYER.OBJ
^C:\USERS\WARRO\ONEDRIVE\DOCUMENTS\KIRBYRPG\KIRBY RPG 2\KIRBY RPG 2\HEROSELECT.CPP|C:\USERS\WARRO\ONEDRIVE\DOCUMENTS\KIRBYRPG\KIRBY RPG 2\KIRBY RPG 2\MAIN.CPP|C:\USERS\WARRO\ONEDRIVE\DOCUMENTS\KIRBYRPG\KIRBY RPG 2\KIRBY RPG 2\PLAYER.CPP|C:\USERS\WARRO\ONEDRIVE\DOCUMENTS\KIRBYRPG\KIRBY RPG 2\KIRBY RPG 2\UNIT.CPP
C:\USERS\WARRO\ONEDRIVE\DOCUMENTS\KIRBYRPG\KIRBY RPG 2\KIRBY RPG 2\DEBUG\VC140.PDB
C:\USERS\WARRO\ONEDRIVE\DOCUMENTS\KIRBYRPG\KIRBY RPG 2\KIRBY RPG 2\DEBUG\VC140.IDB
C:\USERS\WARRO\ONEDRIVE\DOCUMENTS\KIRBYRPG\KIRBY RPG 2\KIRBY RPG 2\DEBUG\HEROSELECT.OBJ
C:\USERS\WARRO\ONEDRIVE\DOCUMENTS\KIRBYRPG\KIRBY RPG 2\KIRBY RPG 2\DEBUG\MAIN.OBJ
C:\USERS\WARRO\ONEDRIVE\DOCUMENTS\KIRBYRPG\KIRBY RPG 2\KIRBY RPG 2\DEBUG\UNIT.OBJ
C:\USERS\WARRO\ONEDRIVE\DOCUMENTS\KIRBYRPG\KIRBY RPG 2\KIRBY RPG 2\DEBUG\PLAYER.OBJ
^C:\USERS\WARRO\ONEDRIVE\DOCUMENTS\KIRBYRPG\KIRBY RPG 2\KIRBY RPG 2\ENEMYINFO.CPP|C:\USERS\WARRO\ONEDRIVE\DOCUMENTS\KIRBYRPG\KIRBY RPG 2\KIRBY RPG 2\HEROSELECT.CPP|C:\USERS\WARRO\ONEDRIVE\DOCUMENTS\KIRBYRPG\KIRBY RPG 2\KIRBY RPG 2\KIRBYINFO.CPP|C:\USERS\WARRO\ONEDRIVE\DOCUMENTS\KIRBYRPG\KIRBY RPG 2\KIRBY RPG 2\MAIN.CPP|C:\USERS\WARRO\ONEDRIVE\DOCUMENTS\KIRBYRPG\KIRBY RPG 2\KIRBY RPG 2\PLAYER.CPP|C:\USERS\WARRO\ONEDRIVE\DOCUMENTS\KIRBYRPG\KIRBY RPG 2\KIRBY RPG 2\STATS.CPP|C:\USERS\WARRO\ONEDRIVE\DOCUMENTS\KIRBYRPG\KIRBY RPG 2\KIRBY RPG 2\UNIT.CPP
C:\USERS\WARRO\ONEDRIVE\DOCUMENTS\KIRBYRPG\KIRBY RPG 2\KIRBY RPG 2\DEBUG\VC140.PDB
C:\USERS\WARRO\ONEDRIVE\DOCUMENTS\KIRBYRPG\KIRBY RPG 2\KIRBY RPG 2\DEBUG\VC140.IDB
C:\USERS\WARRO\ONEDRIVE\DOCUMENTS\KIRBYRPG\KIRBY RPG 2\KIRBY RPG 2\DEBUG\UNIT.OBJ
^C:\USERS\WARRO\ONEDRIVE\DOCUMENTS\KIRBYRPG\KIRBY RPG 2\KIRBY RPG 2\DISPLAY.CPP|C:\USERS\WARRO\ONEDRIVE\DOCUMENTS\KIRBYRPG\KIRBY RPG 2\KIRBY RPG 2\UNIT.CPP
C:\USERS\WARRO\ONEDRIVE\DOCUMENTS\KIRBYRPG\KIRBY RPG 2\KIRBY RPG 2\DEBUG\VC140.PDB
C:\USERS\WARRO\ONEDRIVE\DOCUMENTS\KIRBYRPG\KIRBY RPG 2\KIRBY RPG 2\DEBUG\VC140.IDB
C:\USERS\WARRO\ONEDRIVE\DOCUMENTS\KIRBYRPG\KIRBY RPG 2\KIRBY RPG 2\DEBUG\DISPLAY.OBJ
C:\USERS\WARRO\ONEDRIVE\DOCUMENTS\KIRBYRPG\KIRBY RPG 2\KIRBY RPG 2\DEBUG\UNIT.OBJ
^C:\USERS\WARRO\ONEDRIVE\DOCUMENTS\KIRBYRPG\KIRBY RPG 2\KIRBY RPG 2\HEROSELECT.CPP|C:\USERS\WARRO\ONEDRIVE\DOCUMENTS\KIRBYRPG\KIRBY RPG 2\KIRBY RPG 2\INPUT.CPP|C:\USERS\WARRO\ONEDRIVE\DOCUMENTS\KIRBYRPG\KIRBY RPG 2\KIRBY RPG 2\MAIN.CPP
C:\USERS\WARRO\ONEDRIVE\DOCUMENTS\KIRBYRPG\KIRBY RPG 2\KIRBY RPG 2\DEBUG\VC140.PDB
C:\USERS\WARRO\ONEDRIVE\DOCUMENTS\KIRBYRPG\KIRBY RPG 2\KIRBY RPG 2\DEBUG\VC140.IDB
C:\USERS\WARRO\ONEDRIVE\DOCUMENTS\KIRBYRPG\KIRBY RPG 2\KIRBY RPG 2\DEBUG\HEROSELECT.OBJ
C:\USERS\WARRO\ONEDRIVE\DOCUMENTS\KIRBYRPG\KIRBY RPG 2\KIRBY RPG 2\DEBUG\INPUT.OBJ
C:\USERS\WARRO\ONEDRIVE\DOCUMENTS\KIRBYRPG\KIRBY RPG 2\KIRBY RPG 2\DEBUG\MAIN.OBJ
