^C:\USERS\WARRO\ONEDRIVE\DOCUMENTS\KIRBYRPG\KIRBY RPG 2\KIRBY RPG 2\DEBUG\AUDIO.OBJ|C:\USERS\WARRO\ONEDRIVE\DOCUMENTS\KIRBYRPG\KIRBY RPG 2\KIRBY RPG 2\DEBUG\DISPLAY.OBJ|C:\USERS\WARRO\ONEDRIVE\DOCUMENTS\KIRBYRPG\KIRBY RPG 2\KIRBY RPG 2\DEBUG\ENEMYINFO.OBJ|C:\USERS\WARRO\ONEDRIVE\DOCUMENTS\KIRBYRPG\KIRBY RPG 2\KIRBY RPG 2\DEBUG\FONT.OBJ|C:\USERS\WARRO\ONEDRIVE\DOCUMENTS\KIRBYRPG\KIRBY RPG 2\KIRBY RPG 2\DEBUG\HEROSELECT.OBJ|C:\USERS\WARRO\ONEDRIVE\DOCUMENTS\KIRBYRPG\KIRBY RPG 2\KIRBY RPG 2\DEBUG\IMAGE.OBJ|C:\USERS\WARRO\ONEDRIVE\DOCUMENTS\KIRBYRPG\KIRBY RPG 2\KIRBY RPG 2\DEBUG\INPUT.OBJ|C:\USERS\WARRO\ONEDRIVE\DOCUMENTS\KIRBYRPG\KIRBY RPG 2\KIRBY RPG 2\DEBUG\KIRBYINFO.OBJ|C:\USERS\WARRO\ONEDRIVE\DOCUMENTS\KIRBYRPG\KIRBY RPG 2\KIRBY RPG 2\DEBUG\MAIN.OBJ|C:\USERS\WARRO\ONEDRIVE\DOCUMENTS\KIRBYRPG\KIRBY RPG 2\KIRBY RPG 2\DEBUG\MAINMENU.OBJ|C:\USERS\WARRO\ONEDRIVE\DOCUMENTS\KIRBYRPG\KIRBY RPG 2\KIRBY RPG 2\DEBUG\PLAYER.OBJ|C:\USERS\WARRO\ONEDRIVE\DOCUMENTS\KIRBYRPG\KIRBY RPG 2\KIRBY RPG 2\DEBUG\RENDER.OBJ|C:\USERS\WARRO\ONEDRIVE\DOCUMENTS\KIRBYRPG\KIRBY RPG 2\KIRBY RPG 2\DEBUG\SPRITE.OBJ|C:\USERS\WARRO\ONEDRIVE\DOCUMENTS\KIRBYRPG\KIRBY RPG 2\KIRBY RPG 2\DEBUG\SPRITEANIMATION.OBJ|C:\USERS\WARRO\ONEDRIVE\DOCUMENTS\KIRBYRPG\KIRBY RPG 2\KIRBY RPG 2\DEBUG\STATS.OBJ|C:\USERS\WARRO\ONEDRIVE\DOCUMENTS\KIRBYRPG\KIRBY RPG 2\KIRBY RPG 2\DEBUG\TITLESCREEN.OBJ|C:\USERS\WARRO\ONEDRIVE\DOCUMENTS\KIRBYRPG\KIRBY RPG 2\KIRBY RPG 2\DEBUG\UNIT.OBJ
C:\USERS\WARRO\ONEDRIVE\DOCUMENTS\KIRBYRPG\KIRBY RPG 2\DEBUG\KIRBY RPG 2.ILK
C:\USERS\WARRO\ONEDRIVE\DOCUMENTS\KIRBYRPG\KIRBY RPG 2\DEBUG\KIRBY RPG 2.EXE
C:\USERS\WARRO\ONEDRIVE\DOCUMENTS\KIRBYRPG\KIRBY RPG 2\DEBUG\KIRBY RPG 2.PDB
